INDEX VERSION 1.127+C:\lOGSIS\.metadata\.plugins\org.eclipse.jdt.core
1302820678.index
2167599252.index
2167940557.index
3515282563.index
1964816046.index
3082041659.index
1487002020.index
2068783693.index
1919187895.index
373540197.index
